DD4;S0;20190326151710
DD4;C9;20190326151717;50000106;7517;L040
DD4;C9;20190326151737;50000106;11213;L040
DD4;C9;20190326151741;50000106;3949;L0404
DD4;C9;20190326151810;50000106;3308;L040
DD4;C9;20190326151819;50000106;4569;L040
DD4;C9;20190326151834;50000106;4604;L040
DD4;C9;20190326151842;50000106;3757;L040
DD4;C9;20190326151846;50000106;2316;L040
DD4;C9;20190326151857;50000106;5239;L042
DD4;C9;20190326151910;50000106;2444;L042
DD4;C9;20190326151935;50000106;5586;L042
DD4;C9;20190326151940;50000106;2470;L042
DD4;C9;20190326151957;50000106;3093;L042
DD4;C9;20190326152011;50000106;3037;L042
DD4;C9;20190326152026;50000106;1908;L042
DD4;S9;20190326152028
